%YAML 1.1
%TAG !u! tag:unity3d.com,2011:
--- !u!114 &-5664029286819715281
MonoBehaviour:
  m_ObjectHideFlags: 11
  m_CorrespondingSourceObject: {fileID: 0}
  m_PrefabInstance: {fileID: 0}
  m_PrefabAsset: {fileID: 0}
  m_GameObject: {fileID: 0}
  m_Enabled: 1
  m_EditorHideFlags: 0
  m_Script: {fileID: 11500000, guid: 639247ca83abc874e893eb93af2b5e44, type: 3}
  m_Name: 
  m_EditorClassIdentifier: 
  version: 0
--- !u!21 &2100000
Material:
  serializedVersion: 6
  m_ObjectHideFlags: 0
  m_CorrespondingSourceObject: {fileID: 0}
  m_PrefabInstance: {fileID: 0}
  m_PrefabAsset: {fileID: 0}
  m_Name: M_Hay_Bale
  m_Shader: {fileID: -6465566751694194690, guid: 698dfc773372db64ba26366813a175ed, type: 3}
  m_ShaderKeywords: 
  m_LightmapFlags: 4
  m_EnableInstancingVariants: 0
  m_DoubleSidedGI: 0
  m_CustomRenderQueue: -1
  stringTagMap: {}
  disabledShaderPasses: []
  m_SavedProperties:
    serializedVersion: 3
    m_TexEnvs:
    - _Base_Color_Texture:
        m_Texture: {fileID: 10300, guid: 0000000000000000f000000000000000, type: 0}
        m_Scale: {x: 1, y: 1}
        m_Offset: {x: 0, y: 0}
    m_Ints: []
    m_Floats:
    - _BUILTIN_QueueControl: 0
    - _BUILTIN_QueueOffset: 0
    - _Blends_with_Ground: 0
    - _Blends_with_extra_layer: 0
    - _Color_is_Texture: 0
    - _Gradient_Sharpness: 1
    - _Ground_Transition_Level: 0
    - _Layer_Sharpness: 0.15
    - _Layer_Transition_Levle: 0.06
    - _Metallic: 0
    - _Outline_Emissive_Spread: 0
    - _Outline_emissive_power: 0
    - _Smoothness: 0
    - _Texture_Tiling: 1
    - _Tint_Opacity: 1
    - _Tint_Posterize_Steps: 4
    - _Tint_Spread: 5
    - _Tint_posterize: 4
    - _Tint_spread: 5
    m_Colors:
    - _Color: {r: 0.9056604, g: 0.757611, b: 0.33748665, a: 0}
    - _Layer_Color: {r: 0.5120577, g: 0.5943396, b: 0.36725697, a: 0}
    - _Match_Ground_Color_Here: {r: 0.5410059, g: 0.7924528, b: 0.5121039, a: 0}
    - _Outline_Emissive_Color: {r: 0.15630037, g: 0.9339623, b: 0, a: 0}
    - _Tint_Color: {r: 0, g: 0, b: 0, a: 0}
  m_BuildTextureStacks: []
