%YAML 1.1
%TAG !u! tag:unity3d.com,2011:
--- !u!1 &6666714034430329537
GameObject:
  m_ObjectHideFlags: 0
  m_CorrespondingSourceObject: {fileID: 0}
  m_PrefabInstance: {fileID: 0}
  m_PrefabAsset: {fileID: 0}
  serializedVersion: 6
  m_Component:
  - component: {fileID: 6666714034430329536}
  - component: {fileID: 5193561534263699596}
  m_Layer: 0
  m_Name: Prefab_Rock
  m_TagString: Untagged
  m_Icon: {fileID: 0}
  m_NavMeshLayer: 0
  m_StaticEditorFlags: 0
  m_IsActive: 1
--- !u!4 &6666714034430329536
Transform:
  m_ObjectHideFlags: 0
  m_CorrespondingSourceObject: {fileID: 0}
  m_PrefabInstance: {fileID: 0}
  m_PrefabAsset: {fileID: 0}
  m_GameObject: {fileID: 6666714034430329537}
  m_LocalRotation: {x: 0, y: 0, z: 0, w: 1}
  m_LocalPosition: {x: 0, y: 0, z: 0}
  m_LocalScale: {x: 1, y: 1, z: 1}
  m_ConstrainProportionsScale: 0
  m_Children:
  - {fileID: 6561274524598597192}
  m_Father: {fileID: 0}
  m_RootOrder: 0
  m_LocalEulerAnglesHint: {x: 0, y: 0, z: 0}
--- !u!65 &5193561534263699596
BoxCollider:
  m_ObjectHideFlags: 0
  m_CorrespondingSourceObject: {fileID: 0}
  m_PrefabInstance: {fileID: 0}
  m_PrefabAsset: {fileID: 0}
  m_GameObject: {fileID: 6666714034430329537}
  m_Material: {fileID: 0}
  m_IsTrigger: 0
  m_Enabled: 1
  serializedVersion: 2
  m_Size: {x: 1.75, y: 1.18, z: 1.22}
  m_Center: {x: 0, y: 0.44, z: -0.17}
--- !u!1001 &6666714034646651299
PrefabInstance:
  m_ObjectHideFlags: 0
  serializedVersion: 2
  m_Modification:
    m_TransformParent: {fileID: 6666714034430329536}
    m_Modifications:
    - target: {fileID: -8679921383154817045, guid: 85330b6ae647bf04dbeb31d54ab37553, type: 3}
      propertyPath: m_RootOrder
      value: 0
      objectReference: {fileID: 0}
    - target: {fileID: -8679921383154817045, guid: 85330b6ae647bf04dbeb31d54ab37553, type: 3}
      propertyPath: m_LocalPosition.x
      value: 0
      objectReference: {fileID: 0}
    - target: {fileID: -8679921383154817045, guid: 85330b6ae647bf04dbeb31d54ab37553, type: 3}
      propertyPath: m_LocalPosition.y
      value: 0
      objectReference: {fileID: 0}
    - target: {fileID: -8679921383154817045, guid: 85330b6ae647bf04dbeb31d54ab37553, type: 3}
      propertyPath: m_LocalPosition.z
      value: 0
      objectReference: {fileID: 0}
    - target: {fileID: -8679921383154817045, guid: 85330b6ae647bf04dbeb31d54ab37553, type: 3}
      propertyPath: m_LocalRotation.w
      value: -0.05809544
      objectReference: {fileID: 0}
    - target: {fileID: -8679921383154817045, guid: 85330b6ae647bf04dbeb31d54ab37553, type: 3}
      propertyPath: m_LocalRotation.x
      value: 0.05809522
      objectReference: {fileID: 0}
    - target: {fileID: -8679921383154817045, guid: 85330b6ae647bf04dbeb31d54ab37553, type: 3}
      propertyPath: m_LocalRotation.y
      value: -0.7047179
      objectReference: {fileID: 0}
    - target: {fileID: -8679921383154817045, guid: 85330b6ae647bf04dbeb31d54ab37553, type: 3}
      propertyPath: m_LocalRotation.z
      value: -0.7047146
      objectReference: {fileID: 0}
    - target: {fileID: -8679921383154817045, guid: 85330b6ae647bf04dbeb31d54ab37553, type: 3}
      propertyPath: m_LocalEulerAnglesHint.x
      value: -90
      objectReference: {fileID: 0}
    - target: {fileID: -8679921383154817045, guid: 85330b6ae647bf04dbeb31d54ab37553, type: 3}
      propertyPath: m_LocalEulerAnglesHint.y
      value: 0
      objectReference: {fileID: 0}
    - target: {fileID: -8679921383154817045, guid: 85330b6ae647bf04dbeb31d54ab37553, type: 3}
      propertyPath: m_LocalEulerAnglesHint.z
      value: -189.425
      objectReference: {fileID: 0}
    - target: {fileID: -7511558181221131132, guid: 85330b6ae647bf04dbeb31d54ab37553, type: 3}
      propertyPath: m_Materials.Array.data[0]
      value: 
      objectReference: {fileID: 2100000, guid: 6bc08c0a14e16664dbef1975709b96e8, type: 2}
    - target: {fileID: 919132149155446097, guid: 85330b6ae647bf04dbeb31d54ab37553, type: 3}
      propertyPath: m_Name
      value: SM_Rock
      objectReference: {fileID: 0}
    - target: {fileID: 919132149155446097, guid: 85330b6ae647bf04dbeb31d54ab37553, type: 3}
      propertyPath: m_StaticEditorFlags
      value: 0
      objectReference: {fileID: 0}
    m_RemovedComponents: []
  m_SourcePrefab: {fileID: 100100000, guid: 85330b6ae647bf04dbeb31d54ab37553, type: 3}
--- !u!4 &6561274524598597192 stripped
Transform:
  m_CorrespondingSourceObject: {fileID: -8679921383154817045, guid: 85330b6ae647bf04dbeb31d54ab37553, type: 3}
  m_PrefabInstance: {fileID: 6666714034646651299}
  m_PrefabAsset: {fileID: 0}
